([('autotask.exe',
   'E:\\python\\package\\build\\autotask\\autotask.exe',
   'EXECUTABLE'),
  ('autotask.exe.manifest',
   'E:\\python\\package\\build\\autotask\\autotask.exe.manifest',
   'BINARY'),
  (u'Microsoft.VC90.CRT.manifest',
   u'C:\\Windows\\WinSxS\\Manifests\\x86_microsoft.vc90.crt_1fc8b3b9a1e18e3b_9.0.30729.6313_none_508e1fe4bcbca088.manifest',
   'BINARY'),
  (u'msvcr90.dll',
   u'C:\\Windows\\WinSxS\\x86_microsoft.vc90.crt_1fc8b3b9a1e18e3b_9.0.30729.6313_none_508e1fe4bcbca088\\msvcr90.dll',
   'BINARY'),
  (u'msvcp90.dll',
   u'C:\\Windows\\WinSxS\\x86_microsoft.vc90.crt_1fc8b3b9a1e18e3b_9.0.30729.6313_none_508e1fe4bcbca088\\msvcp90.dll',
   'BINARY'),
  (u'msvcm90.dll',
   u'C:\\Windows\\WinSxS\\x86_microsoft.vc90.crt_1fc8b3b9a1e18e3b_9.0.30729.6313_none_508e1fe4bcbca088\\msvcm90.dll',
   'BINARY'),
  ('python27.dll', 'C:\\Windows\\system32\\python27.dll', 'BINARY'),
  ('pywintypes27.dll', 'C:\\Windows\\system32\\pywintypes27.dll', 'BINARY'),
  ('pythoncom27.dll', 'C:\\Windows\\system32\\pythoncom27.dll', 'BINARY'),
  ('win32trace',
   'D:\\Python27\\lib\\site-packages\\win32\\win32trace.pyd',
   'EXTENSION'),
  ('_win32sysloader',
   'D:\\Python27\\lib\\site-packages\\win32\\_win32sysloader.pyd',
   'EXTENSION'),
  ('win32ui',
   'D:\\Python27\\lib\\site-packages\\Pythonwin\\win32ui.pyd',
   'EXTENSION'),
  ('win32api',
   'D:\\Python27\\lib\\site-packages\\win32\\win32api.pyd',
   'EXTENSION'),
  ('bz2', 'D:\\Python27\\DLLs\\bz2.pyd', 'EXTENSION'),
  ('unicodedata', 'D:\\Python27\\DLLs\\unicodedata.pyd', 'EXTENSION'),
  ('_hashlib', 'D:\\Python27\\DLLs\\_hashlib.pyd', 'EXTENSION'),
  ('_socket', 'D:\\Python27\\DLLs\\_socket.pyd', 'EXTENSION'),
  ('_ssl', 'D:\\Python27\\DLLs\\_ssl.pyd', 'EXTENSION'),
  ('select', 'D:\\Python27\\DLLs\\select.pyd', 'EXTENSION'),
  ('win32wnet',
   'D:\\Python27\\lib\\site-packages\\win32\\win32wnet.pyd',
   'EXTENSION'),
  ('_ctypes', 'D:\\Python27\\DLLs\\_ctypes.pyd', 'EXTENSION'),
  ('pyexpat', 'D:\\Python27\\DLLs\\pyexpat.pyd', 'EXTENSION'),
  ('win32pipe',
   'D:\\Python27\\lib\\site-packages\\win32\\win32pipe.pyd',
   'EXTENSION'),
  ('gevent._semaphore',
   'D:\\Python27\\lib\\site-packages\\gevent\\_semaphore.pyd',
   'EXTENSION'),
  ('greenlet', 'D:\\Python27\\lib\\site-packages\\greenlet.pyd', 'EXTENSION'),
  ('_bsddb', 'D:\\Python27\\DLLs\\_bsddb.pyd', 'EXTENSION'),
  ('gevent.libev.corecext',
   'D:\\Python27\\lib\\site-packages\\gevent\\libev\\corecext.pyd',
   'EXTENSION'),
  (u'Microsoft.VC90.MFC.manifest',
   u'C:\\Windows\\WinSxS\\Manifests\\x86_microsoft.vc90.mfc_1fc8b3b9a1e18e3b_9.0.30729.6313_none_4bf2b498bf9f8f7d.manifest',
   'BINARY'),
  (u'mfc90.dll',
   u'C:\\Windows\\WinSxS\\x86_microsoft.vc90.mfc_1fc8b3b9a1e18e3b_9.0.30729.6313_none_4bf2b498bf9f8f7d\\mfc90.dll',
   'BINARY'),
  (u'mfc90u.dll',
   u'C:\\Windows\\WinSxS\\x86_microsoft.vc90.mfc_1fc8b3b9a1e18e3b_9.0.30729.6313_none_4bf2b498bf9f8f7d\\mfc90u.dll',
   'BINARY'),
  (u'mfcm90.dll',
   u'C:\\Windows\\WinSxS\\x86_microsoft.vc90.mfc_1fc8b3b9a1e18e3b_9.0.30729.6313_none_4bf2b498bf9f8f7d\\mfcm90.dll',
   'BINARY'),
  (u'mfcm90u.dll',
   u'C:\\Windows\\WinSxS\\x86_microsoft.vc90.mfc_1fc8b3b9a1e18e3b_9.0.30729.6313_none_4bf2b498bf9f8f7d\\mfcm90u.dll',
   'BINARY'),
  ('certifi\\cacert.pem',
   'D:\\Python27\\lib\\site-packages\\certifi\\cacert.pem',
   'DATA'),
  ('certifi\\old_root.pem',
   'D:\\Python27\\lib\\site-packages\\certifi\\old_root.pem',
   'DATA'),
  ('Include\\pyconfig.h', 'D:\\Python27\\Include\\pyconfig.h', 'DATA'),
  ('certifi\\weak.pem',
   'D:\\Python27\\lib\\site-packages\\certifi\\weak.pem',
   'DATA')],)
