(['E:\\python\\code\\run.py'],
 ['E:\\python\\code', 'E:\\python\\package'],
 ['codecs'],
 [],
 [],
 [],
 False,
 False,
 '2.7.13 (v2.7.13:a06454b1afa1, Dec 17 2016, 20:42:59) [MSC v.1500 32 bit (Intel)]',
 [('pyi_rth_win32comgenpy',
   'D:\\Python27\\lib\\site-packages\\PyInstaller\\loader\\rthooks\\pyi_rth_win32comgenpy.py',
   'PYSOURCE'),
  ('run', 'E:\\python\\code\\run.py', 'PYSOURCE')],
 [('win32com.gen_py',
   'D:\\Python27\\lib\\site-packages\\win32com\\gen_py\\__init__.py',
   'PYMODULE'),
  ('win32com',
   'D:\\Python27\\lib\\site-packages\\win32com\\__init__.py',
   'PYMODULE'),
  ('win32com.server.util',
   'D:\\Python27\\lib\\site-packages\\win32com\\server\\util.py',
   'PYMODULE'),
  ('win32com.server',
   'D:\\Python27\\lib\\site-packages\\win32com\\server\\__init__.py',
   'PYMODULE'),
  ('win32com.server.dispatcher',
   'D:\\Python27\\lib\\site-packages\\win32com\\server\\dispatcher.py',
   'PYMODULE'),
  ('win32traceutil',
   'D:\\Python27\\lib\\site-packages\\win32\\lib\\win32traceutil.py',
   'PYMODULE'),
  ('win32com.util',
   'D:\\Python27\\lib\\site-packages\\win32com\\util.py',
   'PYMODULE'),
  ('win32con',
   'D:\\Python27\\lib\\site-packages\\win32\\lib\\win32con.py',
   'PYMODULE'),
  ('traceback', 'D:\\Python27\\lib\\traceback.py', 'PYMODULE'),
  ('types', 'D:\\Python27\\lib\\types.py', 'PYMODULE'),
  ('linecache', 'D:\\Python27\\lib\\linecache.py', 'PYMODULE'),
  ('win32com.server.exception',
   'D:\\Python27\\lib\\site-packages\\win32com\\server\\exception.py',
   'PYMODULE'),
  ('winerror',
   'D:\\Python27\\lib\\site-packages\\win32\\lib\\winerror.py',
   'PYMODULE'),
  ('win32com.server.policy',
   'D:\\Python27\\lib\\site-packages\\win32com\\server\\policy.py',
   'PYMODULE'),
  ('pywintypes',
   'D:\\Python27\\lib\\site-packages\\win32\\lib\\pywintypes.py',
   'PYMODULE'),
  ('win32com.universal',
   'D:\\Python27\\lib\\site-packages\\win32com\\universal.py',
   'PYMODULE'),
  ('win32com.client.build',
   'D:\\Python27\\lib\\site-packages\\win32com\\client\\build.py',
   'PYMODULE'),
  ('keyword', 'D:\\Python27\\lib\\keyword.py', 'PYMODULE'),
  ('string', 'D:\\Python27\\lib\\string.py', 'PYMODULE'),
  ('win32com.client.gencache',
   'D:\\Python27\\lib\\site-packages\\win32com\\client\\gencache.py',
   'PYMODULE'),
  ('getopt', 'D:\\Python27\\lib\\getopt.py', 'PYMODULE'),
  ('zipfile', 'D:\\Python27\\lib\\zipfile.py', 'PYMODULE'),
  ('textwrap', 'D:\\Python27\\lib\\textwrap.py', 'PYMODULE'),
  ('py_compile', 'D:\\Python27\\lib\\py_compile.py', 'PYMODULE'),
  ('warnings', 'D:\\Python27\\lib\\warnings.py', 'PYMODULE'),
  ('io', 'D:\\Python27\\lib\\io.py', 'PYMODULE'),
  ('abc', 'D:\\Python27\\lib\\abc.py', 'PYMODULE'),
  ('_weakrefset', 'D:\\Python27\\lib\\_weakrefset.py', 'PYMODULE'),
  ('stat', 'D:\\Python27\\lib\\stat.py', 'PYMODULE'),
  ('struct', 'D:\\Python27\\lib\\struct.py', 'PYMODULE'),
  ('win32com.client.genpy',
   'D:\\Python27\\lib\\site-packages\\win32com\\client\\genpy.py',
   'PYMODULE'),
  ('win32com.client.makepy',
   'D:\\Python27\\lib\\site-packages\\win32com\\client\\makepy.py',
   'PYMODULE'),
  ('pywin.dialogs.status',
   'D:\\Python27\\lib\\site-packages\\Pythonwin\\pywin\\dialogs\\status.py',
   'PYMODULE'),
  ('pywin.mfc.thread',
   'D:\\Python27\\lib\\site-packages\\Pythonwin\\pywin\\mfc\\thread.py',
   'PYMODULE'),
  ('pywin.mfc.object',
   'D:\\Python27\\lib\\site-packages\\Pythonwin\\pywin\\mfc\\object.py',
   'PYMODULE'),
  ('pywin.mfc.dialog',
   'D:\\Python27\\lib\\site-packages\\Pythonwin\\pywin\\mfc\\dialog.py',
   'PYMODULE'),
  ('pywin.mfc.window',
   'D:\\Python27\\lib\\site-packages\\Pythonwin\\pywin\\mfc\\window.py',
   'PYMODULE'),
  ('pywin.mfc',
   'D:\\Python27\\lib\\site-packages\\Pythonwin\\pywin\\mfc\\__init__.py',
   'PYMODULE'),
  ('pywin.dialogs',
   'D:\\Python27\\lib\\site-packages\\Pythonwin\\pywin\\dialogs\\__init__.py',
   'PYMODULE'),
  ('pywin',
   'D:\\Python27\\lib\\site-packages\\Pythonwin\\pywin\\__init__.py',
   'PYMODULE'),
  ('win32com.client.selecttlb',
   'D:\\Python27\\lib\\site-packages\\win32com\\client\\selecttlb.py',
   'PYMODULE'),
  ('pywin.dialogs.list',
   'D:\\Python27\\lib\\site-packages\\Pythonwin\\pywin\\dialogs\\list.py',
   'PYMODULE'),
  ('commctrl',
   'D:\\Python27\\lib\\site-packages\\win32\\lib\\commctrl.py',
   'PYMODULE'),
  ('copy_reg', 'D:\\Python27\\lib\\copy_reg.py', 'PYMODULE'),
  ('win32com.client.CLSIDToClass',
   'D:\\Python27\\lib\\site-packages\\win32com\\client\\CLSIDToClass.py',
   'PYMODULE'),
  ('glob', 'D:\\Python27\\lib\\glob.py', 'PYMODULE'),
  ('fnmatch', 'D:\\Python27\\lib\\fnmatch.py', 'PYMODULE'),
  ('posixpath', 'D:\\Python27\\lib\\posixpath.py', 'PYMODULE'),
  ('genericpath', 'D:\\Python27\\lib\\genericpath.py', 'PYMODULE'),
  ('win32com.client.util',
   'D:\\Python27\\lib\\site-packages\\win32com\\client\\util.py',
   'PYMODULE'),
  ('win32com.client',
   'D:\\Python27\\lib\\site-packages\\win32com\\client\\__init__.py',
   'PYMODULE'),
  ('win32com.client.dynamic',
   'D:\\Python27\\lib\\site-packages\\win32com\\client\\dynamic.py',
   'PYMODULE'),
  ('pythoncom', 'D:\\Python27\\lib\\site-packages\\pythoncom.py', 'PYMODULE'),
  ('tempfile', 'D:\\Python27\\lib\\tempfile.py', 'PYMODULE'),
  ('dummy_thread', 'D:\\Python27\\lib\\dummy_thread.py', 'PYMODULE'),
  ('StringIO', 'D:\\Python27\\lib\\StringIO.py', 'PYMODULE'),
  ('shutil', 'D:\\Python27\\lib\\shutil.py', 'PYMODULE'),
  ('distutils.spawn', 'D:\\Python27\\lib\\distutils\\spawn.py', 'PYMODULE'),
  ('distutils.sysconfig',
   'D:\\Python27\\lib\\distutils\\sysconfig.py',
   'PYMODULE'),
  ('distutils.text_file',
   'D:\\Python27\\lib\\distutils\\text_file.py',
   'PYMODULE'),
  ('_osx_support', 'D:\\Python27\\lib\\_osx_support.py', 'PYMODULE'),
  ('contextlib', 'D:\\Python27\\lib\\contextlib.py', 'PYMODULE'),
  ('functools', 'D:\\Python27\\lib\\functools.py', 'PYMODULE'),
  ('distutils.log', 'D:\\Python27\\lib\\distutils\\log.py', 'PYMODULE'),
  ('distutils', 'D:\\Python27\\lib\\distutils\\__init__.py', 'PYMODULE'),
  ('distutils.debug', 'D:\\Python27\\lib\\distutils\\debug.py', 'PYMODULE'),
  ('distutils.errors', 'D:\\Python27\\lib\\distutils\\errors.py', 'PYMODULE'),
  ('tarfile', 'D:\\Python27\\lib\\tarfile.py', 'PYMODULE'),
  ('calendar', 'D:\\Python27\\lib\\calendar.py', 'PYMODULE'),
  ('optparse', 'D:\\Python27\\lib\\optparse.py', 'PYMODULE'),
  ('gettext', 'D:\\Python27\\lib\\gettext.py', 'PYMODULE'),
  ('locale', 'D:\\Python27\\lib\\locale.py', 'PYMODULE'),
  ('gzip', 'D:\\Python27\\lib\\gzip.py', 'PYMODULE'),
  ('copy', 'D:\\Python27\\lib\\copy.py', 'PYMODULE'),
  ('repr', 'D:\\Python27\\lib\\repr.py', 'PYMODULE'),
  ('weakref', 'D:\\Python27\\lib\\weakref.py', 'PYMODULE'),
  ('UserDict', 'D:\\Python27\\lib\\UserDict.py', 'PYMODULE'),
  ('_abcoll', 'D:\\Python27\\lib\\_abcoll.py', 'PYMODULE'),
  ('collections', 'D:\\Python27\\lib\\collections.py', 'PYMODULE'),
  ('doctest', 'D:\\Python27\\lib\\doctest.py', 'PYMODULE'),
  ('pdb', 'D:\\Python27\\lib\\pdb.py', 'PYMODULE'),
  ('shlex', 'D:\\Python27\\lib\\shlex.py', 'PYMODULE'),
  ('pprint', 'D:\\Python27\\lib\\pprint.py', 'PYMODULE'),
  ('bdb', 'D:\\Python27\\lib\\bdb.py', 'PYMODULE'),
  ('cmd', 'D:\\Python27\\lib\\cmd.py', 'PYMODULE'),
  ('difflib', 'D:\\Python27\\lib\\difflib.py', 'PYMODULE'),
  ('unittest', 'D:\\Python27\\lib\\unittest\\__init__.py', 'PYMODULE'),
  ('unittest.signals', 'D:\\Python27\\lib\\unittest\\signals.py', 'PYMODULE'),
  ('unittest.main', 'D:\\Python27\\lib\\unittest\\main.py', 'PYMODULE'),
  ('unittest.runner', 'D:\\Python27\\lib\\unittest\\runner.py', 'PYMODULE'),
  ('unittest.loader', 'D:\\Python27\\lib\\unittest\\loader.py', 'PYMODULE'),
  ('unittest.suite', 'D:\\Python27\\lib\\unittest\\suite.py', 'PYMODULE'),
  ('unittest.case', 'D:\\Python27\\lib\\unittest\\case.py', 'PYMODULE'),
  ('unittest.result', 'D:\\Python27\\lib\\unittest\\result.py', 'PYMODULE'),
  ('unittest.util', 'D:\\Python27\\lib\\unittest\\util.py', 'PYMODULE'),
  ('__future__', 'D:\\Python27\\lib\\__future__.py', 'PYMODULE'),
  ('heapq', 'D:\\Python27\\lib\\heapq.py', 'PYMODULE'),
  ('ntpath', 'D:\\Python27\\lib\\ntpath.py', 'PYMODULE'),
  ('atexit', 'D:\\Python27\\lib\\atexit.py', 'PYMODULE'),
  ('encodings.aliases',
   'D:\\Python27\\lib\\encodings\\aliases.py',
   'PYMODULE'),
  ('encodings', 'D:\\Python27\\lib\\encodings\\__init__.py', 'PYMODULE'),
  ('encodings.idna', 'D:\\Python27\\lib\\encodings\\idna.py', 'PYMODULE'),
  ('stringprep', 'D:\\Python27\\lib\\stringprep.py', 'PYMODULE'),
  ('encodings.mbcs', 'D:\\Python27\\lib\\encodings\\mbcs.py', 'PYMODULE'),
  ('encodings.raw_unicode_escape',
   'D:\\Python27\\lib\\encodings\\raw_unicode_escape.py',
   'PYMODULE'),
  ('encodings.gb18030',
   'D:\\Python27\\lib\\encodings\\gb18030.py',
   'PYMODULE'),
  ('encodings.shift_jisx0213',
   'D:\\Python27\\lib\\encodings\\shift_jisx0213.py',
   'PYMODULE'),
  ('encodings.ascii', 'D:\\Python27\\lib\\encodings\\ascii.py', 'PYMODULE'),
  ('encodings.cp861', 'D:\\Python27\\lib\\encodings\\cp861.py', 'PYMODULE'),
  ('encodings.cp860', 'D:\\Python27\\lib\\encodings\\cp860.py', 'PYMODULE'),
  ('encodings.cp863', 'D:\\Python27\\lib\\encodings\\cp863.py', 'PYMODULE'),
  ('encodings.cp862', 'D:\\Python27\\lib\\encodings\\cp862.py', 'PYMODULE'),
  ('encodings.cp865', 'D:\\Python27\\lib\\encodings\\cp865.py', 'PYMODULE'),
  ('encodings.big5hkscs',
   'D:\\Python27\\lib\\encodings\\big5hkscs.py',
   'PYMODULE'),
  ('encodings.cp866', 'D:\\Python27\\lib\\encodings\\cp866.py', 'PYMODULE'),
  ('encodings.cp869', 'D:\\Python27\\lib\\encodings\\cp869.py', 'PYMODULE'),
  ('encodings.mac_latin2',
   'D:\\Python27\\lib\\encodings\\mac_latin2.py',
   'PYMODULE'),
  ('encodings.hex_codec',
   'D:\\Python27\\lib\\encodings\\hex_codec.py',
   'PYMODULE'),
  ('encodings.cp950', 'D:\\Python27\\lib\\encodings\\cp950.py', 'PYMODULE'),
  ('encodings.quopri_codec',
   'D:\\Python27\\lib\\encodings\\quopri_codec.py',
   'PYMODULE'),
  ('quopri', 'D:\\Python27\\lib\\quopri.py', 'PYMODULE'),
  ('encodings.utf_32_be',
   'D:\\Python27\\lib\\encodings\\utf_32_be.py',
   'PYMODULE'),
  ('encodings.string_escape',
   'D:\\Python27\\lib\\encodings\\string_escape.py',
   'PYMODULE'),
  ('encodings.cp1250', 'D:\\Python27\\lib\\encodings\\cp1250.py', 'PYMODULE'),
  ('encodings.cp1251', 'D:\\Python27\\lib\\encodings\\cp1251.py', 'PYMODULE'),
  ('encodings.cp1252', 'D:\\Python27\\lib\\encodings\\cp1252.py', 'PYMODULE'),
  ('encodings.cp1253', 'D:\\Python27\\lib\\encodings\\cp1253.py', 'PYMODULE'),
  ('encodings.cp1254', 'D:\\Python27\\lib\\encodings\\cp1254.py', 'PYMODULE'),
  ('encodings.cp1255', 'D:\\Python27\\lib\\encodings\\cp1255.py', 'PYMODULE'),
  ('encodings.cp1256', 'D:\\Python27\\lib\\encodings\\cp1256.py', 'PYMODULE'),
  ('encodings.cp1257', 'D:\\Python27\\lib\\encodings\\cp1257.py', 'PYMODULE'),
  ('encodings.cp1258', 'D:\\Python27\\lib\\encodings\\cp1258.py', 'PYMODULE'),
  ('encodings.euc_jp', 'D:\\Python27\\lib\\encodings\\euc_jp.py', 'PYMODULE'),
  ('encodings.hz', 'D:\\Python27\\lib\\encodings\\hz.py', 'PYMODULE'),
  ('encodings.mac_cyrillic',
   'D:\\Python27\\lib\\encodings\\mac_cyrillic.py',
   'PYMODULE'),
  ('encodings.iso2022_kr',
   'D:\\Python27\\lib\\encodings\\iso2022_kr.py',
   'PYMODULE'),
  ('encodings.unicode_internal',
   'D:\\Python27\\lib\\encodings\\unicode_internal.py',
   'PYMODULE'),
  ('encodings.cp500', 'D:\\Python27\\lib\\encodings\\cp500.py', 'PYMODULE'),
  ('encodings.iso8859_10',
   'D:\\Python27\\lib\\encodings\\iso8859_10.py',
   'PYMODULE'),
  ('encodings.iso8859_11',
   'D:\\Python27\\lib\\encodings\\iso8859_11.py',
   'PYMODULE'),
  ('encodings.iso8859_13',
   'D:\\Python27\\lib\\encodings\\iso8859_13.py',
   'PYMODULE'),
  ('encodings.iso8859_14',
   'D:\\Python27\\lib\\encodings\\iso8859_14.py',
   'PYMODULE'),
  ('encodings.cp424', 'D:\\Python27\\lib\\encodings\\cp424.py', 'PYMODULE'),
  ('encodings.iso8859_16',
   'D:\\Python27\\lib\\encodings\\iso8859_16.py',
   'PYMODULE'),
  ('encodings.cp1006', 'D:\\Python27\\lib\\encodings\\cp1006.py', 'PYMODULE'),
  ('encodings.hp_roman8',
   'D:\\Python27\\lib\\encodings\\hp_roman8.py',
   'PYMODULE'),
  ('encodings.charmap',
   'D:\\Python27\\lib\\encodings\\charmap.py',
   'PYMODULE'),
  ('encodings.utf_32', 'D:\\Python27\\lib\\encodings\\utf_32.py', 'PYMODULE'),
  ('encodings.latin_1',
   'D:\\Python27\\lib\\encodings\\latin_1.py',
   'PYMODULE'),
  ('encodings.utf_16_be',
   'D:\\Python27\\lib\\encodings\\utf_16_be.py',
   'PYMODULE'),
  ('encodings.cp737', 'D:\\Python27\\lib\\encodings\\cp737.py', 'PYMODULE'),
  ('encodings.utf_16', 'D:\\Python27\\lib\\encodings\\utf_16.py', 'PYMODULE'),
  ('encodings.cp437', 'D:\\Python27\\lib\\encodings\\cp437.py', 'PYMODULE'),
  ('encodings.mac_roman',
   'D:\\Python27\\lib\\encodings\\mac_roman.py',
   'PYMODULE'),
  ('encodings.mac_centeuro',
   'D:\\Python27\\lib\\encodings\\mac_centeuro.py',
   'PYMODULE'),
  ('encodings.mac_croatian',
   'D:\\Python27\\lib\\encodings\\mac_croatian.py',
   'PYMODULE'),
  ('encodings.punycode',
   'D:\\Python27\\lib\\encodings\\punycode.py',
   'PYMODULE'),
  ('encodings.unicode_escape',
   'D:\\Python27\\lib\\encodings\\unicode_escape.py',
   'PYMODULE'),
  ('encodings.bz2_codec',
   'D:\\Python27\\lib\\encodings\\bz2_codec.py',
   'PYMODULE'),
  ('encodings.rot_13', 'D:\\Python27\\lib\\encodings\\rot_13.py', 'PYMODULE'),
  ('encodings.cp874', 'D:\\Python27\\lib\\encodings\\cp874.py', 'PYMODULE'),
  ('encodings.cp875', 'D:\\Python27\\lib\\encodings\\cp875.py', 'PYMODULE'),
  ('encodings.cp720', 'D:\\Python27\\lib\\encodings\\cp720.py', 'PYMODULE'),
  ('encodings.tis_620',
   'D:\\Python27\\lib\\encodings\\tis_620.py',
   'PYMODULE'),
  ('encodings.zlib_codec',
   'D:\\Python27\\lib\\encodings\\zlib_codec.py',
   'PYMODULE'),
  ('encodings.iso2022_jp_2004',
   'D:\\Python27\\lib\\encodings\\iso2022_jp_2004.py',
   'PYMODULE'),
  ('encodings.euc_jisx0213',
   'D:\\Python27\\lib\\encodings\\euc_jisx0213.py',
   'PYMODULE'),
  ('encodings.ptcp154',
   'D:\\Python27\\lib\\encodings\\ptcp154.py',
   'PYMODULE'),
  ('encodings.uu_codec',
   'D:\\Python27\\lib\\encodings\\uu_codec.py',
   'PYMODULE'),
  ('encodings.utf_16_le',
   'D:\\Python27\\lib\\encodings\\utf_16_le.py',
   'PYMODULE'),
  ('encodings.iso2022_jp_2',
   'D:\\Python27\\lib\\encodings\\iso2022_jp_2.py',
   'PYMODULE'),
  ('encodings.iso2022_jp_3',
   'D:\\Python27\\lib\\encodings\\iso2022_jp_3.py',
   'PYMODULE'),
  ('encodings.iso2022_jp_1',
   'D:\\Python27\\lib\\encodings\\iso2022_jp_1.py',
   'PYMODULE'),
  ('encodings.mac_romanian',
   'D:\\Python27\\lib\\encodings\\mac_romanian.py',
   'PYMODULE'),
  ('encodings.cp1026', 'D:\\Python27\\lib\\encodings\\cp1026.py', 'PYMODULE'),
  ('encodings.mac_farsi',
   'D:\\Python27\\lib\\encodings\\mac_farsi.py',
   'PYMODULE'),
  ('encodings.undefined',
   'D:\\Python27\\lib\\encodings\\undefined.py',
   'PYMODULE'),
  ('encodings.mac_turkish',
   'D:\\Python27\\lib\\encodings\\mac_turkish.py',
   'PYMODULE'),
  ('encodings.koi8_u', 'D:\\Python27\\lib\\encodings\\koi8_u.py', 'PYMODULE'),
  ('encodings.koi8_r', 'D:\\Python27\\lib\\encodings\\koi8_r.py', 'PYMODULE'),
  ('encodings.utf_8_sig',
   'D:\\Python27\\lib\\encodings\\utf_8_sig.py',
   'PYMODULE'),
  ('encodings.iso2022_jp',
   'D:\\Python27\\lib\\encodings\\iso2022_jp.py',
   'PYMODULE'),
  ('encodings.palmos', 'D:\\Python27\\lib\\encodings\\palmos.py', 'PYMODULE'),
  ('encodings.mac_greek',
   'D:\\Python27\\lib\\encodings\\mac_greek.py',
   'PYMODULE'),
  ('encodings.shift_jis_2004',
   'D:\\Python27\\lib\\encodings\\shift_jis_2004.py',
   'PYMODULE'),
  ('encodings.gbk', 'D:\\Python27\\lib\\encodings\\gbk.py', 'PYMODULE'),
  ('encodings.mac_iceland',
   'D:\\Python27\\lib\\encodings\\mac_iceland.py',
   'PYMODULE'),
  ('encodings.cp858', 'D:\\Python27\\lib\\encodings\\cp858.py', 'PYMODULE'),
  ('encodings.cp850', 'D:\\Python27\\lib\\encodings\\cp850.py', 'PYMODULE'),
  ('encodings.cp852', 'D:\\Python27\\lib\\encodings\\cp852.py', 'PYMODULE'),
  ('encodings.cp855', 'D:\\Python27\\lib\\encodings\\cp855.py', 'PYMODULE'),
  ('encodings.cp856', 'D:\\Python27\\lib\\encodings\\cp856.py', 'PYMODULE'),
  ('encodings.cp857', 'D:\\Python27\\lib\\encodings\\cp857.py', 'PYMODULE'),
  ('encodings.iso8859_4',
   'D:\\Python27\\lib\\encodings\\iso8859_4.py',
   'PYMODULE'),
  ('encodings.iso8859_5',
   'D:\\Python27\\lib\\encodings\\iso8859_5.py',
   'PYMODULE'),
  ('encodings.iso8859_6',
   'D:\\Python27\\lib\\encodings\\iso8859_6.py',
   'PYMODULE'),
  ('encodings.iso8859_7',
   'D:\\Python27\\lib\\encodings\\iso8859_7.py',
   'PYMODULE'),
  ('encodings.iso8859_1',
   'D:\\Python27\\lib\\encodings\\iso8859_1.py',
   'PYMODULE'),
  ('encodings.iso8859_2',
   'D:\\Python27\\lib\\encodings\\iso8859_2.py',
   'PYMODULE'),
  ('encodings.iso8859_3',
   'D:\\Python27\\lib\\encodings\\iso8859_3.py',
   'PYMODULE'),
  ('encodings.gb2312', 'D:\\Python27\\lib\\encodings\\gb2312.py', 'PYMODULE'),
  ('encodings.iso8859_8',
   'D:\\Python27\\lib\\encodings\\iso8859_8.py',
   'PYMODULE'),
  ('encodings.iso8859_9',
   'D:\\Python27\\lib\\encodings\\iso8859_9.py',
   'PYMODULE'),
  ('encodings.cp949', 'D:\\Python27\\lib\\encodings\\cp949.py', 'PYMODULE'),
  ('encodings.cp864', 'D:\\Python27\\lib\\encodings\\cp864.py', 'PYMODULE'),
  ('encodings.base64_codec',
   'D:\\Python27\\lib\\encodings\\base64_codec.py',
   'PYMODULE'),
  ('base64', 'D:\\Python27\\lib\\base64.py', 'PYMODULE'),
  ('encodings.cp037', 'D:\\Python27\\lib\\encodings\\cp037.py', 'PYMODULE'),
  ('encodings.utf_8', 'D:\\Python27\\lib\\encodings\\utf_8.py', 'PYMODULE'),
  ('encodings.mac_arabic',
   'D:\\Python27\\lib\\encodings\\mac_arabic.py',
   'PYMODULE'),
  ('encodings.euc_kr', 'D:\\Python27\\lib\\encodings\\euc_kr.py', 'PYMODULE'),
  ('encodings.utf_7', 'D:\\Python27\\lib\\encodings\\utf_7.py', 'PYMODULE'),
  ('encodings.shift_jis',
   'D:\\Python27\\lib\\encodings\\shift_jis.py',
   'PYMODULE'),
  ('encodings.utf_32_le',
   'D:\\Python27\\lib\\encodings\\utf_32_le.py',
   'PYMODULE'),
  ('encodings.euc_jis_2004',
   'D:\\Python27\\lib\\encodings\\euc_jis_2004.py',
   'PYMODULE'),
  ('encodings.cp775', 'D:\\Python27\\lib\\encodings\\cp775.py', 'PYMODULE'),
  ('encodings.cp1140', 'D:\\Python27\\lib\\encodings\\cp1140.py', 'PYMODULE'),
  ('encodings.big5', 'D:\\Python27\\lib\\encodings\\big5.py', 'PYMODULE'),
  ('encodings.iso8859_15',
   'D:\\Python27\\lib\\encodings\\iso8859_15.py',
   'PYMODULE'),
  ('encodings.iso2022_jp_ext',
   'D:\\Python27\\lib\\encodings\\iso2022_jp_ext.py',
   'PYMODULE'),
  ('encodings.johab', 'D:\\Python27\\lib\\encodings\\johab.py', 'PYMODULE'),
  ('encodings.cp932', 'D:\\Python27\\lib\\encodings\\cp932.py', 'PYMODULE'),
  ('random', 'D:\\Python27\\lib\\random.py', 'PYMODULE'),
  ('hashlib', 'D:\\Python27\\lib\\hashlib.py', 'PYMODULE'),
  ('logging', 'D:\\Python27\\lib\\logging\\__init__.py', 'PYMODULE'),
  ('requests',
   'D:\\Python27\\lib\\site-packages\\requests\\__init__.py',
   'PYMODULE'),
  ('requests.status_codes',
   'D:\\Python27\\lib\\site-packages\\requests\\status_codes.py',
   'PYMODULE'),
  ('requests.structures',
   'D:\\Python27\\lib\\site-packages\\requests\\structures.py',
   'PYMODULE'),
  ('requests.compat',
   'D:\\Python27\\lib\\site-packages\\requests\\compat.py',
   'PYMODULE'),
  ('http.cookies',
   'D:\\Python27\\lib\\site-packages\\http\\cookies.py',
   'PYMODULE'),
  ('http.cookiejar',
   'D:\\Python27\\lib\\site-packages\\http\\cookiejar.py',
   'PYMODULE'),
  ('http', 'D:\\Python27\\lib\\site-packages\\http\\__init__.py', 'PYMODULE'),
  ('urllib3.packages.ordered_dict',
   'D:\\Python27\\lib\\site-packages\\urllib3\\packages\\ordered_dict.py',
   'PYMODULE'),
  ('urllib3.packages',
   'D:\\Python27\\lib\\site-packages\\urllib3\\packages\\__init__.py',
   'PYMODULE'),
  ('urllib3.packages.ssl_match_hostname',
   'D:\\Python27\\lib\\site-packages\\urllib3\\packages\\ssl_match_hostname\\__init__.py',
   'PYMODULE'),
  ('urllib3.packages.ssl_match_hostname._implementation',
   'D:\\Python27\\lib\\site-packages\\urllib3\\packages\\ssl_match_hostname\\_implementation.py',
   'PYMODULE'),
  ('ssl', 'D:\\Python27\\lib\\ssl.py', 'PYMODULE'),
  ('socket', 'D:\\Python27\\lib\\socket.py', 'PYMODULE'),
  ('Cookie', 'D:\\Python27\\lib\\Cookie.py', 'PYMODULE'),
  ('pickle', 'D:\\Python27\\lib\\pickle.py', 'PYMODULE'),
  ('urlparse', 'D:\\Python27\\lib\\urlparse.py', 'PYMODULE'),
  ('json', 'D:\\Python27\\lib\\json\\__init__.py', 'PYMODULE'),
  ('json.encoder', 'D:\\Python27\\lib\\json\\encoder.py', 'PYMODULE'),
  ('json.decoder', 'D:\\Python27\\lib\\json\\decoder.py', 'PYMODULE'),
  ('json.scanner', 'D:\\Python27\\lib\\json\\scanner.py', 'PYMODULE'),
  ('requests.api',
   'D:\\Python27\\lib\\site-packages\\requests\\api.py',
   'PYMODULE'),
  ('requests.sessions',
   'D:\\Python27\\lib\\site-packages\\requests\\sessions.py',
   'PYMODULE'),
  ('requests.adapters',
   'D:\\Python27\\lib\\site-packages\\requests\\adapters.py',
   'PYMODULE'),
  ('urllib3.contrib.socks',
   'D:\\Python27\\lib\\site-packages\\urllib3\\contrib\\socks.py',
   'PYMODULE'),
  ('urllib3.util.url',
   'D:\\Python27\\lib\\site-packages\\urllib3\\util\\url.py',
   'PYMODULE'),
  ('urllib3.connectionpool',
   'D:\\Python27\\lib\\site-packages\\urllib3\\connectionpool.py',
   'PYMODULE'),
  ('Queue', 'D:\\Python27\\lib\\Queue.py', 'PYMODULE'),
  ('dummy_threading', 'D:\\Python27\\lib\\dummy_threading.py', 'PYMODULE'),
  ('urllib3.util.timeout',
   'D:\\Python27\\lib\\site-packages\\urllib3\\util\\timeout.py',
   'PYMODULE'),
  ('urllib3.util.response',
   'D:\\Python27\\lib\\site-packages\\urllib3\\util\\response.py',
   'PYMODULE'),
  ('httplib', 'D:\\Python27\\lib\\httplib.py', 'PYMODULE'),
  ('mimetools', 'D:\\Python27\\lib\\mimetools.py', 'PYMODULE'),
  ('uu', 'D:\\Python27\\lib\\uu.py', 'PYMODULE'),
  ('rfc822', 'D:\\Python27\\lib\\rfc822.py', 'PYMODULE'),
  ('urllib3.util.request',
   'D:\\Python27\\lib\\site-packages\\urllib3\\util\\request.py',
   'PYMODULE'),
  ('urllib3.util.connection',
   'D:\\Python27\\lib\\site-packages\\urllib3\\util\\connection.py',
   'PYMODULE'),
  ('urllib3.util.selectors',
   'D:\\Python27\\lib\\site-packages\\urllib3\\util\\selectors.py',
   'PYMODULE'),
  ('urllib3.util.wait',
   'D:\\Python27\\lib\\site-packages\\urllib3\\util\\wait.py',
   'PYMODULE'),
  ('urllib3.request',
   'D:\\Python27\\lib\\site-packages\\urllib3\\request.py',
   'PYMODULE'),
  ('urllib3.filepost',
   'D:\\Python27\\lib\\site-packages\\urllib3\\filepost.py',
   'PYMODULE'),
  ('urllib3.fields',
   'D:\\Python27\\lib\\site-packages\\urllib3\\fields.py',
   'PYMODULE'),
  ('mimetypes', 'D:\\Python27\\lib\\mimetypes.py', 'PYMODULE'),
  ('email.utils', 'D:\\Python27\\lib\\email\\utils.py', 'PYMODULE'),
  ('email.encoders', 'D:\\Python27\\lib\\email\\encoders.py', 'PYMODULE'),
  ('email._parseaddr', 'D:\\Python27\\lib\\email\\_parseaddr.py', 'PYMODULE'),
  ('email', 'D:\\Python27\\lib\\email\\__init__.py', 'PYMODULE'),
  ('email.mime', 'D:\\Python27\\lib\\email\\mime\\__init__.py', 'PYMODULE'),
  ('email.parser', 'D:\\Python27\\lib\\email\\parser.py', 'PYMODULE'),
  ('email.feedparser', 'D:\\Python27\\lib\\email\\feedparser.py', 'PYMODULE'),
  ('email.message', 'D:\\Python27\\lib\\email\\message.py', 'PYMODULE'),
  ('email.iterators', 'D:\\Python27\\lib\\email\\iterators.py', 'PYMODULE'),
  ('email.generator', 'D:\\Python27\\lib\\email\\generator.py', 'PYMODULE'),
  ('email.header', 'D:\\Python27\\lib\\email\\header.py', 'PYMODULE'),
  ('email.base64mime', 'D:\\Python27\\lib\\email\\base64mime.py', 'PYMODULE'),
  ('email.quoprimime', 'D:\\Python27\\lib\\email\\quoprimime.py', 'PYMODULE'),
  ('email.charset', 'D:\\Python27\\lib\\email\\charset.py', 'PYMODULE'),
  ('email.errors', 'D:\\Python27\\lib\\email\\errors.py', 'PYMODULE'),
  ('uuid', 'D:\\Python27\\lib\\uuid.py', 'PYMODULE'),
  ('ctypes.util', 'D:\\Python27\\lib\\ctypes\\util.py', 'PYMODULE'),
  ('ctypes.macholib.dyld',
   'D:\\Python27\\lib\\ctypes\\macholib\\dyld.py',
   'PYMODULE'),
  ('ctypes.macholib',
   'D:\\Python27\\lib\\ctypes\\macholib\\__init__.py',
   'PYMODULE'),
  ('ctypes.macholib.dylib',
   'D:\\Python27\\lib\\ctypes\\macholib\\dylib.py',
   'PYMODULE'),
  ('ctypes.macholib.framework',
   'D:\\Python27\\lib\\ctypes\\macholib\\framework.py',
   'PYMODULE'),
  ('subprocess', 'D:\\Python27\\lib\\subprocess.py', 'PYMODULE'),
  ('netbios',
   'D:\\Python27\\lib\\site-packages\\win32\\lib\\netbios.py',
   'PYMODULE'),
  ('ctypes', 'D:\\Python27\\lib\\ctypes\\__init__.py', 'PYMODULE'),
  ('ctypes._endian', 'D:\\Python27\\lib\\ctypes\\_endian.py', 'PYMODULE'),
  ('urllib3.packages.six',
   'D:\\Python27\\lib\\site-packages\\urllib3\\packages\\six.py',
   'PYMODULE'),
  ('urllib3.connection',
   'D:\\Python27\\lib\\site-packages\\urllib3\\connection.py',
   'PYMODULE'),
  ('urllib3._collections',
   'D:\\Python27\\lib\\site-packages\\urllib3\\_collections.py',
   'PYMODULE'),
  ('urllib3.util.ssl_',
   'D:\\Python27\\lib\\site-packages\\urllib3\\util\\ssl_.py',
   'PYMODULE'),
  ('hmac', 'D:\\Python27\\lib\\hmac.py', 'PYMODULE'),
  ('urllib3.util.retry',
   'D:\\Python27\\lib\\site-packages\\urllib3\\util\\retry.py',
   'PYMODULE'),
  ('urllib3.util',
   'D:\\Python27\\lib\\site-packages\\urllib3\\util\\__init__.py',
   'PYMODULE'),
  ('urllib3.response',
   'D:\\Python27\\lib\\site-packages\\urllib3\\response.py',
   'PYMODULE'),
  ('urllib3.poolmanager',
   'D:\\Python27\\lib\\site-packages\\urllib3\\poolmanager.py',
   'PYMODULE'),
  ('requests._internal_utils',
   'D:\\Python27\\lib\\site-packages\\requests\\_internal_utils.py',
   'PYMODULE'),
  ('requests.hooks',
   'D:\\Python27\\lib\\site-packages\\requests\\hooks.py',
   'PYMODULE'),
  ('requests.cookies',
   'D:\\Python27\\lib\\site-packages\\requests\\cookies.py',
   'PYMODULE'),
  ('platform', 'D:\\Python27\\lib\\platform.py', 'PYMODULE'),
  ('plistlib', 'D:\\Python27\\lib\\plistlib.py', 'PYMODULE'),
  ('xml.parsers.expat',
   'D:\\Python27\\lib\\xml\\parsers\\expat.py',
   'PYMODULE'),
  ('xml.parsers', 'D:\\Python27\\lib\\xml\\parsers\\__init__.py', 'PYMODULE'),
  ('xml', 'D:\\Python27\\lib\\xml\\__init__.py', 'PYMODULE'),
  ('xml.sax.expatreader',
   'D:\\Python27\\lib\\xml\\sax\\expatreader.py',
   'PYMODULE'),
  ('xml.sax.saxutils',
   'D:\\Python27\\lib\\xml\\sax\\saxutils.py',
   'PYMODULE'),
  ('xml.sax', 'D:\\Python27\\lib\\xml\\sax\\__init__.py', 'PYMODULE'),
  ('xml.sax.handler', 'D:\\Python27\\lib\\xml\\sax\\handler.py', 'PYMODULE'),
  ('xml.sax._exceptions',
   'D:\\Python27\\lib\\xml\\sax\\_exceptions.py',
   'PYMODULE'),
  ('xml.sax.xmlreader',
   'D:\\Python27\\lib\\xml\\sax\\xmlreader.py',
   'PYMODULE'),
  ('winreg',
   'D:\\Python27\\lib\\site-packages\\winreg\\__init__.py',
   'PYMODULE'),
  ('ctypes.wintypes', 'D:\\Python27\\lib\\ctypes\\wintypes.py', 'PYMODULE'),
  ('requests.models',
   'D:\\Python27\\lib\\site-packages\\requests\\models.py',
   'PYMODULE'),
  ('idna', 'D:\\Python27\\lib\\site-packages\\idna\\__init__.py', 'PYMODULE'),
  ('idna.core',
   'D:\\Python27\\lib\\site-packages\\idna\\core.py',
   'PYMODULE'),
  ('idna.uts46data',
   'D:\\Python27\\lib\\site-packages\\idna\\uts46data.py',
   'PYMODULE'),
  ('idna.intranges',
   'D:\\Python27\\lib\\site-packages\\idna\\intranges.py',
   'PYMODULE'),
  ('bisect', 'D:\\Python27\\lib\\bisect.py', 'PYMODULE'),
  ('idna.idnadata',
   'D:\\Python27\\lib\\site-packages\\idna\\idnadata.py',
   'PYMODULE'),
  ('idna.package_data',
   'D:\\Python27\\lib\\site-packages\\idna\\package_data.py',
   'PYMODULE'),
  ('requests.packages',
   'D:\\Python27\\lib\\site-packages\\requests\\packages.py',
   'PYMODULE'),
  ('requests.utils',
   'D:\\Python27\\lib\\site-packages\\requests\\utils.py',
   'PYMODULE'),
  ('netrc', 'D:\\Python27\\lib\\netrc.py', 'PYMODULE'),
  ('cgi', 'D:\\Python27\\lib\\cgi.py', 'PYMODULE'),
  ('requests.certs',
   'D:\\Python27\\lib\\site-packages\\requests\\certs.py',
   'PYMODULE'),
  ('certifi',
   'D:\\Python27\\lib\\site-packages\\certifi\\__init__.py',
   'PYMODULE'),
  ('certifi.core',
   'D:\\Python27\\lib\\site-packages\\certifi\\core.py',
   'PYMODULE'),
  ('requests.__version__',
   'D:\\Python27\\lib\\site-packages\\requests\\__version__.py',
   'PYMODULE'),
  ('urllib3.exceptions',
   'D:\\Python27\\lib\\site-packages\\urllib3\\exceptions.py',
   'PYMODULE'),
  ('urllib3.contrib.pyopenssl',
   'D:\\Python27\\lib\\site-packages\\urllib3\\contrib\\pyopenssl.py',
   'PYMODULE'),
  ('urllib3.packages.backports.makefile',
   'D:\\Python27\\lib\\site-packages\\urllib3\\packages\\backports\\makefile.py',
   'PYMODULE'),
  ('urllib3.packages.backports',
   'D:\\Python27\\lib\\site-packages\\urllib3\\packages\\backports\\__init__.py',
   'PYMODULE'),
  ('urllib3.contrib',
   'D:\\Python27\\lib\\site-packages\\urllib3\\contrib\\__init__.py',
   'PYMODULE'),
  ('requests.exceptions',
   'D:\\Python27\\lib\\site-packages\\requests\\exceptions.py',
   'PYMODULE'),
  ('chardet',
   'D:\\Python27\\lib\\site-packages\\chardet\\__init__.py',
   'PYMODULE'),
  ('chardet.version',
   'D:\\Python27\\lib\\site-packages\\chardet\\version.py',
   'PYMODULE'),
  ('chardet.universaldetector',
   'D:\\Python27\\lib\\site-packages\\chardet\\universaldetector.py',
   'PYMODULE'),
  ('chardet.sbcsgroupprober',
   'D:\\Python27\\lib\\site-packages\\chardet\\sbcsgroupprober.py',
   'PYMODULE'),
  ('chardet.langturkishmodel',
   'D:\\Python27\\lib\\site-packages\\chardet\\langturkishmodel.py',
   'PYMODULE'),
  ('chardet.hebrewprober',
   'D:\\Python27\\lib\\site-packages\\chardet\\hebrewprober.py',
   'PYMODULE'),
  ('chardet.charsetprober',
   'D:\\Python27\\lib\\site-packages\\chardet\\charsetprober.py',
   'PYMODULE'),
  ('chardet.langhebrewmodel',
   'D:\\Python27\\lib\\site-packages\\chardet\\langhebrewmodel.py',
   'PYMODULE'),
  ('chardet.langthaimodel',
   'D:\\Python27\\lib\\site-packages\\chardet\\langthaimodel.py',
   'PYMODULE'),
  ('chardet.langbulgarianmodel',
   'D:\\Python27\\lib\\site-packages\\chardet\\langbulgarianmodel.py',
   'PYMODULE'),
  ('chardet.langgreekmodel',
   'D:\\Python27\\lib\\site-packages\\chardet\\langgreekmodel.py',
   'PYMODULE'),
  ('chardet.langcyrillicmodel',
   'D:\\Python27\\lib\\site-packages\\chardet\\langcyrillicmodel.py',
   'PYMODULE'),
  ('chardet.sbcharsetprober',
   'D:\\Python27\\lib\\site-packages\\chardet\\sbcharsetprober.py',
   'PYMODULE'),
  ('chardet.mbcsgroupprober',
   'D:\\Python27\\lib\\site-packages\\chardet\\mbcsgroupprober.py',
   'PYMODULE'),
  ('chardet.euctwprober',
   'D:\\Python27\\lib\\site-packages\\chardet\\euctwprober.py',
   'PYMODULE'),
  ('chardet.mbcssm',
   'D:\\Python27\\lib\\site-packages\\chardet\\mbcssm.py',
   'PYMODULE'),
  ('chardet.chardistribution',
   'D:\\Python27\\lib\\site-packages\\chardet\\chardistribution.py',
   'PYMODULE'),
  ('chardet.jisfreq',
   'D:\\Python27\\lib\\site-packages\\chardet\\jisfreq.py',
   'PYMODULE'),
  ('chardet.big5freq',
   'D:\\Python27\\lib\\site-packages\\chardet\\big5freq.py',
   'PYMODULE'),
  ('chardet.gb2312freq',
   'D:\\Python27\\lib\\site-packages\\chardet\\gb2312freq.py',
   'PYMODULE'),
  ('chardet.euckrfreq',
   'D:\\Python27\\lib\\site-packages\\chardet\\euckrfreq.py',
   'PYMODULE'),
  ('chardet.euctwfreq',
   'D:\\Python27\\lib\\site-packages\\chardet\\euctwfreq.py',
   'PYMODULE'),
  ('chardet.codingstatemachine',
   'D:\\Python27\\lib\\site-packages\\chardet\\codingstatemachine.py',
   'PYMODULE'),
  ('chardet.mbcharsetprober',
   'D:\\Python27\\lib\\site-packages\\chardet\\mbcharsetprober.py',
   'PYMODULE'),
  ('chardet.big5prober',
   'D:\\Python27\\lib\\site-packages\\chardet\\big5prober.py',
   'PYMODULE'),
  ('chardet.cp949prober',
   'D:\\Python27\\lib\\site-packages\\chardet\\cp949prober.py',
   'PYMODULE'),
  ('chardet.euckrprober',
   'D:\\Python27\\lib\\site-packages\\chardet\\euckrprober.py',
   'PYMODULE'),
  ('chardet.gb2312prober',
   'D:\\Python27\\lib\\site-packages\\chardet\\gb2312prober.py',
   'PYMODULE'),
  ('chardet.eucjpprober',
   'D:\\Python27\\lib\\site-packages\\chardet\\eucjpprober.py',
   'PYMODULE'),
  ('chardet.jpcntx',
   'D:\\Python27\\lib\\site-packages\\chardet\\jpcntx.py',
   'PYMODULE'),
  ('chardet.sjisprober',
   'D:\\Python27\\lib\\site-packages\\chardet\\sjisprober.py',
   'PYMODULE'),
  ('chardet.utf8prober',
   'D:\\Python27\\lib\\site-packages\\chardet\\utf8prober.py',
   'PYMODULE'),
  ('chardet.latin1prober',
   'D:\\Python27\\lib\\site-packages\\chardet\\latin1prober.py',
   'PYMODULE'),
  ('chardet.escprober',
   'D:\\Python27\\lib\\site-packages\\chardet\\escprober.py',
   'PYMODULE'),
  ('chardet.escsm',
   'D:\\Python27\\lib\\site-packages\\chardet\\escsm.py',
   'PYMODULE'),
  ('chardet.enums',
   'D:\\Python27\\lib\\site-packages\\chardet\\enums.py',
   'PYMODULE'),
  ('chardet.charsetgroupprober',
   'D:\\Python27\\lib\\site-packages\\chardet\\charsetgroupprober.py',
   'PYMODULE'),
  ('chardet.compat',
   'D:\\Python27\\lib\\site-packages\\chardet\\compat.py',
   'PYMODULE'),
  ('urllib3',
   'D:\\Python27\\lib\\site-packages\\urllib3\\__init__.py',
   'PYMODULE'),
  ('codecs', 'D:\\Python27\\lib\\codecs.py', 'PYMODULE'),
  ('inspect', 'D:\\Python27\\lib\\inspect.py', 'PYMODULE'),
  ('tokenize', 'D:\\Python27\\lib\\tokenize.py', 'PYMODULE'),
  ('token', 'D:\\Python27\\lib\\token.py', 'PYMODULE'),
  ('dis', 'D:\\Python27\\lib\\dis.py', 'PYMODULE'),
  ('opcode', 'D:\\Python27\\lib\\opcode.py', 'PYMODULE'),
  ('cookielib', 'D:\\Python27\\lib\\cookielib.py', 'PYMODULE'),
  ('_MozillaCookieJar',
   'D:\\Python27\\lib\\_MozillaCookieJar.py',
   'PYMODULE'),
  ('_LWPCookieJar', 'D:\\Python27\\lib\\_LWPCookieJar.py', 'PYMODULE'),
  ('os', 'D:\\Python27\\lib\\os.py', 'PYMODULE'),
  ('os2emxpath', 'D:\\Python27\\lib\\os2emxpath.py', 'PYMODULE'),
  ('_strptime', 'D:\\Python27\\lib\\_strptime.py', 'PYMODULE'),
  ('re', 'D:\\Python27\\lib\\re.py', 'PYMODULE'),
  ('sre_constants', 'D:\\Python27\\lib\\sre_constants.py', 'PYMODULE'),
  ('sre', 'D:\\Python27\\lib\\sre.py', 'PYMODULE'),
  ('sre_parse', 'D:\\Python27\\lib\\sre_parse.py', 'PYMODULE'),
  ('sre_compile', 'D:\\Python27\\lib\\sre_compile.py', 'PYMODULE'),
  ('urllib', 'D:\\Python27\\lib\\urllib.py', 'PYMODULE'),
  ('getpass', 'D:\\Python27\\lib\\getpass.py', 'PYMODULE'),
  ('ftplib', 'D:\\Python27\\lib\\ftplib.py', 'PYMODULE'),
  ('nturl2path', 'D:\\Python27\\lib\\nturl2path.py', 'PYMODULE'),
  ('urllib2', 'D:\\Python27\\lib\\urllib2.py', 'PYMODULE'),
  ('gevent.monkey',
   'D:\\Python27\\lib\\site-packages\\gevent\\monkey.py',
   'PYMODULE'),
  ('gevent.thread',
   'D:\\Python27\\lib\\site-packages\\gevent\\thread.py',
   'PYMODULE'),
  ('gevent.lock',
   'D:\\Python27\\lib\\site-packages\\gevent\\lock.py',
   'PYMODULE'),
  ('gevent.greenlet',
   'D:\\Python27\\lib\\site-packages\\gevent\\greenlet.py',
   'PYMODULE'),
  ('gevent.timeout',
   'D:\\Python27\\lib\\site-packages\\gevent\\timeout.py',
   'PYMODULE'),
  ('gevent._tblib',
   'D:\\Python27\\lib\\site-packages\\gevent\\_tblib.py',
   'PYMODULE'),
  ('copyreg',
   'D:\\Python27\\lib\\site-packages\\copyreg\\__init__.py',
   'PYMODULE'),
  ('gevent._util',
   'D:\\Python27\\lib\\site-packages\\gevent\\_util.py',
   'PYMODULE'),
  ('gevent._compat',
   'D:\\Python27\\lib\\site-packages\\gevent\\_compat.py',
   'PYMODULE'),
  ('gevent._util_py2',
   'D:\\Python27\\lib\\site-packages\\gevent\\_util_py2.py',
   'PYMODULE'),
  ('_thread',
   'D:\\Python27\\lib\\site-packages\\_thread\\__init__.py',
   'PYMODULE'),
  ('gevent.ssl',
   'D:\\Python27\\lib\\site-packages\\gevent\\ssl.py',
   'PYMODULE'),
  ('gevent._ssl3',
   'D:\\Python27\\lib\\site-packages\\gevent\\_ssl3.py',
   'PYMODULE'),
  ('gevent._ssl2',
   'D:\\Python27\\lib\\site-packages\\gevent\\_ssl2.py',
   'PYMODULE'),
  ('gevent._socket2',
   'D:\\Python27\\lib\\site-packages\\gevent\\_socket2.py',
   'PYMODULE'),
  ('gevent._socketcommon',
   'D:\\Python27\\lib\\site-packages\\gevent\\_socketcommon.py',
   'PYMODULE'),
  ('gevent.win32util',
   'D:\\Python27\\lib\\site-packages\\gevent\\win32util.py',
   'PYMODULE'),
  ('gevent._sslgte279',
   'D:\\Python27\\lib\\site-packages\\gevent\\_sslgte279.py',
   'PYMODULE'),
  ('gevent.subprocess',
   'D:\\Python27\\lib\\site-packages\\gevent\\subprocess.py',
   'PYMODULE'),
  ('gevent.signal',
   'D:\\Python27\\lib\\site-packages\\gevent\\signal.py',
   'PYMODULE'),
  ('gevent.select',
   'D:\\Python27\\lib\\site-packages\\gevent\\select.py',
   'PYMODULE'),
  ('gevent.os',
   'D:\\Python27\\lib\\site-packages\\gevent\\os.py',
   'PYMODULE'),
  ('gevent.builtins',
   'D:\\Python27\\lib\\site-packages\\gevent\\builtins.py',
   'PYMODULE'),
  ('builtins',
   'D:\\Python27\\lib\\site-packages\\builtins\\__init__.py',
   'PYMODULE'),
  ('future.builtins',
   'D:\\Python27\\lib\\site-packages\\future\\builtins\\__init__.py',
   'PYMODULE'),
  ('future.types.newbytes',
   'D:\\Python27\\lib\\site-packages\\future\\types\\newbytes.py',
   'PYMODULE'),
  ('future.utils.surrogateescape',
   'D:\\Python27\\lib\\site-packages\\future\\utils\\surrogateescape.py',
   'PYMODULE'),
  ('numbers', 'D:\\Python27\\lib\\numbers.py', 'PYMODULE'),
  ('future.types.newstr',
   'D:\\Python27\\lib\\site-packages\\future\\types\\newstr.py',
   'PYMODULE'),
  ('future.types.newobject',
   'D:\\Python27\\lib\\site-packages\\future\\types\\newobject.py',
   'PYMODULE'),
  ('future.types.newrange',
   'D:\\Python27\\lib\\site-packages\\future\\types\\newrange.py',
   'PYMODULE'),
  ('future.backports.misc',
   'D:\\Python27\\lib\\site-packages\\future\\backports\\misc.py',
   'PYMODULE'),
  ('future.backports',
   'D:\\Python27\\lib\\site-packages\\future\\backports\\__init__.py',
   'PYMODULE'),
  ('future.standard_library',
   'D:\\Python27\\lib\\site-packages\\future\\standard_library\\__init__.py',
   'PYMODULE'),
  ('importlib', 'D:\\Python27\\lib\\importlib\\__init__.py', 'PYMODULE'),
  ('future.moves.dbm.ndbm',
   'D:\\Python27\\lib\\site-packages\\future\\moves\\dbm\\ndbm.py',
   'PYMODULE'),
  ('future.moves.dbm.gnu',
   'D:\\Python27\\lib\\site-packages\\future\\moves\\dbm\\gnu.py',
   'PYMODULE'),
  ('future.moves.dbm.dumb',
   'D:\\Python27\\lib\\site-packages\\future\\moves\\dbm\\dumb.py',
   'PYMODULE'),
  ('dumbdbm', 'D:\\Python27\\lib\\dumbdbm.py', 'PYMODULE'),
  ('ast', 'D:\\Python27\\lib\\ast.py', 'PYMODULE'),
  ('future.moves.dbm',
   'D:\\Python27\\lib\\site-packages\\future\\moves\\dbm\\__init__.py',
   'PYMODULE'),
  ('future.moves',
   'D:\\Python27\\lib\\site-packages\\future\\moves\\__init__.py',
   'PYMODULE'),
  ('anydbm', 'D:\\Python27\\lib\\anydbm.py', 'PYMODULE'),
  ('dbhash', 'D:\\Python27\\lib\\dbhash.py', 'PYMODULE'),
  ('bsddb', 'D:\\Python27\\lib\\bsddb\\__init__.py', 'PYMODULE'),
  ('bsddb.dbutils', 'D:\\Python27\\lib\\bsddb\\dbutils.py', 'PYMODULE'),
  ('bsddb.db', 'D:\\Python27\\lib\\bsddb\\db.py', 'PYMODULE'),
  ('whichdb', 'D:\\Python27\\lib\\whichdb.py', 'PYMODULE'),
  ('future.moves.test.support',
   'D:\\Python27\\lib\\site-packages\\future\\moves\\test\\support.py',
   'PYMODULE'),
  ('future.moves.test',
   'D:\\Python27\\lib\\site-packages\\future\\moves\\test\\__init__.py',
   'PYMODULE'),
  ('test', 'E:\\python\\code\\test.py', 'PYMODULE'),
  ('future.backports.urllib.robotparser',
   'D:\\Python27\\lib\\site-packages\\future\\backports\\urllib\\robotparser.py',
   'PYMODULE'),
  ('future.backports.urllib.error',
   'D:\\Python27\\lib\\site-packages\\future\\backports\\urllib\\error.py',
   'PYMODULE'),
  ('future.backports.urllib.parse',
   'D:\\Python27\\lib\\site-packages\\future\\backports\\urllib\\parse.py',
   'PYMODULE'),
  ('future.backports.urllib.response',
   'D:\\Python27\\lib\\site-packages\\future\\backports\\urllib\\response.py',
   'PYMODULE'),
  ('future.backports.urllib.request',
   'D:\\Python27\\lib\\site-packages\\future\\backports\\urllib\\request.py',
   'PYMODULE'),
  ('future.backports.email.utils',
   'D:\\Python27\\lib\\site-packages\\future\\backports\\email\\utils.py',
   'PYMODULE'),
  ('future.backports.email.charset',
   'D:\\Python27\\lib\\site-packages\\future\\backports\\email\\charset.py',
   'PYMODULE'),
  ('future.backports.email.errors',
   'D:\\Python27\\lib\\site-packages\\future\\backports\\email\\errors.py',
   'PYMODULE'),
  ('future.backports.email.encoders',
   'D:\\Python27\\lib\\site-packages\\future\\backports\\email\\encoders.py',
   'PYMODULE'),
  ('future.backports.email._parseaddr',
   'D:\\Python27\\lib\\site-packages\\future\\backports\\email\\_parseaddr.py',
   'PYMODULE'),
  ('future.backports.http.cookiejar',
   'D:\\Python27\\lib\\site-packages\\future\\backports\\http\\cookiejar.py',
   'PYMODULE'),
  ('future.backports.http.client',
   'D:\\Python27\\lib\\site-packages\\future\\backports\\http\\client.py',
   'PYMODULE'),
  ('future.backports.email.message',
   'D:\\Python27\\lib\\site-packages\\future\\backports\\email\\message.py',
   'PYMODULE'),
  ('future.backports.email.iterators',
   'D:\\Python27\\lib\\site-packages\\future\\backports\\email\\iterators.py',
   'PYMODULE'),
  ('future.backports.email.generator',
   'D:\\Python27\\lib\\site-packages\\future\\backports\\email\\generator.py',
   'PYMODULE'),
  ('future.backports.email.header',
   'D:\\Python27\\lib\\site-packages\\future\\backports\\email\\header.py',
   'PYMODULE'),
  ('future.backports.email.quoprimime',
   'D:\\Python27\\lib\\site-packages\\future\\backports\\email\\quoprimime.py',
   'PYMODULE'),
  ('future.backports.email.base64mime',
   'D:\\Python27\\lib\\site-packages\\future\\backports\\email\\base64mime.py',
   'PYMODULE'),
  ('future.backports.email._encoded_words',
   'D:\\Python27\\lib\\site-packages\\future\\backports\\email\\_encoded_words.py',
   'PYMODULE'),
  ('future.backports.email._policybase',
   'D:\\Python27\\lib\\site-packages\\future\\backports\\email\\_policybase.py',
   'PYMODULE'),
  ('future.backports.email.parser',
   'D:\\Python27\\lib\\site-packages\\future\\backports\\email\\parser.py',
   'PYMODULE'),
  ('future.backports.email.feedparser',
   'D:\\Python27\\lib\\site-packages\\future\\backports\\email\\feedparser.py',
   'PYMODULE'),
  ('future.backports.http',
   'D:\\Python27\\lib\\site-packages\\future\\backports\\http\\__init__.py',
   'PYMODULE'),
  ('future.backports.urllib',
   'D:\\Python27\\lib\\site-packages\\future\\backports\\urllib\\__init__.py',
   'PYMODULE'),
  ('future.backports.email',
   'D:\\Python27\\lib\\site-packages\\future\\backports\\email\\__init__.py',
   'PYMODULE'),
  ('future.backports.datetime',
   'D:\\Python27\\lib\\site-packages\\future\\backports\\datetime.py',
   'PYMODULE'),
  ('reprlib',
   'D:\\Python27\\lib\\site-packages\\reprlib\\__init__.py',
   'PYMODULE'),
  ('_dummy_thread',
   'D:\\Python27\\lib\\site-packages\\_dummy_thread\\__init__.py',
   'PYMODULE'),
  ('future.types.newlist',
   'D:\\Python27\\lib\\site-packages\\future\\types\\newlist.py',
   'PYMODULE'),
  ('future.types.newint',
   'D:\\Python27\\lib\\site-packages\\future\\types\\newint.py',
   'PYMODULE'),
  ('future.types.newdict',
   'D:\\Python27\\lib\\site-packages\\future\\types\\newdict.py',
   'PYMODULE'),
  ('future.types',
   'D:\\Python27\\lib\\site-packages\\future\\types\\__init__.py',
   'PYMODULE'),
  ('future.utils',
   'D:\\Python27\\lib\\site-packages\\future\\utils\\__init__.py',
   'PYMODULE'),
  ('future.builtins.misc',
   'D:\\Python27\\lib\\site-packages\\future\\builtins\\misc.py',
   'PYMODULE'),
  ('future.builtins.newsuper',
   'D:\\Python27\\lib\\site-packages\\future\\builtins\\newsuper.py',
   'PYMODULE'),
  ('future.builtins.newround',
   'D:\\Python27\\lib\\site-packages\\future\\builtins\\newround.py',
   'PYMODULE'),
  ('decimal', 'D:\\Python27\\lib\\decimal.py', 'PYMODULE'),
  ('future.builtins.newnext',
   'D:\\Python27\\lib\\site-packages\\future\\builtins\\newnext.py',
   'PYMODULE'),
  ('future.builtins.iterators',
   'D:\\Python27\\lib\\site-packages\\future\\builtins\\iterators.py',
   'PYMODULE'),
  ('future',
   'D:\\Python27\\lib\\site-packages\\future\\__init__.py',
   'PYMODULE'),
  ('gevent.socket',
   'D:\\Python27\\lib\\site-packages\\gevent\\socket.py',
   'PYMODULE'),
  ('gevent.threading',
   'D:\\Python27\\lib\\site-packages\\gevent\\threading.py',
   'PYMODULE'),
  ('gevent.local',
   'D:\\Python27\\lib\\site-packages\\gevent\\local.py',
   'PYMODULE'),
  ('gevent.event',
   'D:\\Python27\\lib\\site-packages\\gevent\\event.py',
   'PYMODULE'),
  ('gevent.hub',
   'D:\\Python27\\lib\\site-packages\\gevent\\hub.py',
   'PYMODULE'),
  ('gevent.fileobject',
   'D:\\Python27\\lib\\site-packages\\gevent\\fileobject.py',
   'PYMODULE'),
  ('gevent._fileobjectposix',
   'D:\\Python27\\lib\\site-packages\\gevent\\_fileobjectposix.py',
   'PYMODULE'),
  ('gevent._fileobjectcommon',
   'D:\\Python27\\lib\\site-packages\\gevent\\_fileobjectcommon.py',
   'PYMODULE'),
  ('requests.auth',
   'D:\\Python27\\lib\\site-packages\\requests\\auth.py',
   'PYMODULE'),
  ('progressbar',
   'D:\\Python27\\lib\\site-packages\\progressbar\\__init__.py',
   'PYMODULE'),
  ('progressbar.widgets',
   'D:\\Python27\\lib\\site-packages\\progressbar\\widgets.py',
   'PYMODULE'),
  ('progressbar.compat',
   'D:\\Python27\\lib\\site-packages\\progressbar\\compat.py',
   'PYMODULE'),
  ('wordChangeTxt', 'E:\\python\\code\\wordChangeTxt.py', 'PYMODULE'),
  ('unrar.rarfile',
   'D:\\Python27\\lib\\site-packages\\unrar\\rarfile.py',
   'PYMODULE'),
  ('unrar.unrarlib',
   'D:\\Python27\\lib\\site-packages\\unrar\\unrarlib.py',
   'PYMODULE'),
  ('unrar.constants',
   'D:\\Python27\\lib\\site-packages\\unrar\\constants.py',
   'PYMODULE'),
  ('unrar',
   'D:\\Python27\\lib\\site-packages\\unrar\\__init__.py',
   'PYMODULE'),
  ('threading', 'D:\\Python27\\lib\\threading.py', 'PYMODULE'),
  ('_threading_local', 'D:\\Python27\\lib\\_threading_local.py', 'PYMODULE'),
  ('gevent',
   'D:\\Python27\\lib\\site-packages\\gevent\\__init__.py',
   'PYMODULE'),
  ('gevent.threadpool',
   'D:\\Python27\\lib\\site-packages\\gevent\\threadpool.py',
   'PYMODULE'),
  ('gevent._threading',
   'D:\\Python27\\lib\\site-packages\\gevent\\_threading.py',
   'PYMODULE'),
  ('queue',
   'D:\\Python27\\lib\\site-packages\\queue\\__init__.py',
   'PYMODULE'),
  ('gevent.pool',
   'D:\\Python27\\lib\\site-packages\\gevent\\pool.py',
   'PYMODULE'),
  ('gevent.queue',
   'D:\\Python27\\lib\\site-packages\\gevent\\queue.py',
   'PYMODULE'),
  ('gevent.resolver_ares',
   'D:\\Python27\\lib\\site-packages\\gevent\\resolver_ares.py',
   'PYMODULE'),
  ('gevent.resolver_thread',
   'D:\\Python27\\lib\\site-packages\\gevent\\resolver_thread.py',
   'PYMODULE'),
  ('gevent.core',
   'D:\\Python27\\lib\\site-packages\\gevent\\core.py',
   'PYMODULE'),
  ('gevent.libev.corecffi',
   'D:\\Python27\\lib\\site-packages\\gevent\\libev\\corecffi.py',
   'PYMODULE'),
  ('gevent.libev',
   'D:\\Python27\\lib\\site-packages\\gevent\\libev\\__init__.py',
   'PYMODULE')],
 [(u'Microsoft.VC90.CRT.manifest',
   u'C:\\Windows\\WinSxS\\Manifests\\x86_microsoft.vc90.crt_1fc8b3b9a1e18e3b_9.0.30729.6313_none_508e1fe4bcbca088.manifest',
   'BINARY'),
  (u'msvcr90.dll',
   u'C:\\Windows\\WinSxS\\x86_microsoft.vc90.crt_1fc8b3b9a1e18e3b_9.0.30729.6313_none_508e1fe4bcbca088\\msvcr90.dll',
   'BINARY'),
  (u'msvcp90.dll',
   u'C:\\Windows\\WinSxS\\x86_microsoft.vc90.crt_1fc8b3b9a1e18e3b_9.0.30729.6313_none_508e1fe4bcbca088\\msvcp90.dll',
   'BINARY'),
  (u'msvcm90.dll',
   u'C:\\Windows\\WinSxS\\x86_microsoft.vc90.crt_1fc8b3b9a1e18e3b_9.0.30729.6313_none_508e1fe4bcbca088\\msvcm90.dll',
   'BINARY'),
  ('python27.dll', 'C:\\Windows\\system32\\python27.dll', 'BINARY'),
  ('pywintypes27.dll', 'C:\\Windows\\system32\\pywintypes27.dll', 'BINARY'),
  ('pythoncom27.dll', 'C:\\Windows\\system32\\pythoncom27.dll', 'BINARY'),
  ('win32trace',
   'D:\\Python27\\lib\\site-packages\\win32\\win32trace.pyd',
   'EXTENSION'),
  ('_win32sysloader',
   'D:\\Python27\\lib\\site-packages\\win32\\_win32sysloader.pyd',
   'EXTENSION'),
  ('win32ui',
   'D:\\Python27\\lib\\site-packages\\Pythonwin\\win32ui.pyd',
   'EXTENSION'),
  ('win32api',
   'D:\\Python27\\lib\\site-packages\\win32\\win32api.pyd',
   'EXTENSION'),
  ('bz2', 'D:\\Python27\\DLLs\\bz2.pyd', 'EXTENSION'),
  ('unicodedata', 'D:\\Python27\\DLLs\\unicodedata.pyd', 'EXTENSION'),
  ('_hashlib', 'D:\\Python27\\DLLs\\_hashlib.pyd', 'EXTENSION'),
  ('_socket', 'D:\\Python27\\DLLs\\_socket.pyd', 'EXTENSION'),
  ('_ssl', 'D:\\Python27\\DLLs\\_ssl.pyd', 'EXTENSION'),
  ('select', 'D:\\Python27\\DLLs\\select.pyd', 'EXTENSION'),
  ('win32wnet',
   'D:\\Python27\\lib\\site-packages\\win32\\win32wnet.pyd',
   'EXTENSION'),
  ('_ctypes', 'D:\\Python27\\DLLs\\_ctypes.pyd', 'EXTENSION'),
  ('pyexpat', 'D:\\Python27\\DLLs\\pyexpat.pyd', 'EXTENSION'),
  ('win32pipe',
   'D:\\Python27\\lib\\site-packages\\win32\\win32pipe.pyd',
   'EXTENSION'),
  ('gevent._semaphore',
   'D:\\Python27\\lib\\site-packages\\gevent\\_semaphore.pyd',
   'EXTENSION'),
  ('greenlet', 'D:\\Python27\\lib\\site-packages\\greenlet.pyd', 'EXTENSION'),
  ('_bsddb', 'D:\\Python27\\DLLs\\_bsddb.pyd', 'EXTENSION'),
  ('gevent.libev.corecext',
   'D:\\Python27\\lib\\site-packages\\gevent\\libev\\corecext.pyd',
   'EXTENSION'),
  (u'Microsoft.VC90.MFC.manifest',
   u'C:\\Windows\\WinSxS\\Manifests\\x86_microsoft.vc90.mfc_1fc8b3b9a1e18e3b_9.0.30729.6313_none_4bf2b498bf9f8f7d.manifest',
   'BINARY'),
  (u'mfc90.dll',
   u'C:\\Windows\\WinSxS\\x86_microsoft.vc90.mfc_1fc8b3b9a1e18e3b_9.0.30729.6313_none_4bf2b498bf9f8f7d\\mfc90.dll',
   'BINARY'),
  (u'mfc90u.dll',
   u'C:\\Windows\\WinSxS\\x86_microsoft.vc90.mfc_1fc8b3b9a1e18e3b_9.0.30729.6313_none_4bf2b498bf9f8f7d\\mfc90u.dll',
   'BINARY'),
  (u'mfcm90.dll',
   u'C:\\Windows\\WinSxS\\x86_microsoft.vc90.mfc_1fc8b3b9a1e18e3b_9.0.30729.6313_none_4bf2b498bf9f8f7d\\mfcm90.dll',
   'BINARY'),
  (u'mfcm90u.dll',
   u'C:\\Windows\\WinSxS\\x86_microsoft.vc90.mfc_1fc8b3b9a1e18e3b_9.0.30729.6313_none_4bf2b498bf9f8f7d\\mfcm90u.dll',
   'BINARY')],
 [],
 [],
 [('certifi\\cacert.pem',
   'D:\\Python27\\lib\\site-packages\\certifi\\cacert.pem',
   'DATA'),
  ('certifi\\old_root.pem',
   'D:\\Python27\\lib\\site-packages\\certifi\\old_root.pem',
   'DATA'),
  ('Include\\pyconfig.h', 'D:\\Python27\\Include\\pyconfig.h', 'DATA'),
  ('certifi\\weak.pem',
   'D:\\Python27\\lib\\site-packages\\certifi\\weak.pem',
   'DATA')],
 [BindingRedirect(name=u'Microsoft.VC90.CRT', language=None, arch=u'x86', oldVersion=(9, 0, 21022, 8), newVersion=(9, 0, 30729, 6313), publicKeyToken=u'1fc8b3b9a1e18e3b'),
  BindingRedirect(name=u'Microsoft.VC90.MFC', language=None, arch=u'x86', oldVersion=(9, 0, 21022, 8), newVersion=(9, 0, 30729, 6313), publicKeyToken=u'1fc8b3b9a1e18e3b')])
